# Blender v2.76 (sub 0) OBJ File: 'rocks.blend'
# www.blender.org
o low_poly_rock1
v -0.599023 0.266231 -0.436201
v -0.559996 0.372335 -0.521013
v -0.632005 0.157014 -0.671891
v -0.574828 0.502156 -0.376174
v -0.477069 0.421034 -0.092415
v -0.463958 0.471869 -0.625038
v -0.499271 0.567699 -0.409625
v -0.353887 0.333893 -0.931795
v -0.502729 0.301793 -0.904373
v -0.593821 -0.014685 -0.610980
v -0.535663 0.071687 -0.331541
v -0.596094 0.206537 -0.805849
v -0.583346 -0.011955 -0.815214
v -0.262413 -0.035064 0.279509
v -0.305325 -0.304766 -0.133601
v -0.242384 -0.207828 0.104493
v -0.563986 0.164084 -0.885317
v -0.505033 0.571914 -0.235589
v -0.153932 0.576759 0.406134
v -0.242447 0.347263 0.363120
v -0.040389 0.191534 0.457639
v -0.497354 -0.042838 -0.216788
v -0.555375 -0.139859 -0.376045
v -0.375404 0.399701 0.244635
v -0.302822 0.585997 0.350365
v 0.189600 0.390211 0.458634
v 0.104103 0.575191 0.432485
v 0.036162 0.590191 0.345556
v 0.220481 0.538710 0.325017
v 0.341380 0.564596 0.205899
v 0.302118 0.553018 0.052501
v -0.116763 0.564148 -0.313817
v -0.304287 0.151507 0.227614
v -0.402602 -0.141179 -0.122137
v -0.206872 -0.440499 -0.780045
v -0.460148 -0.384604 -0.543987
v -0.342896 -0.389881 -0.861728
v -0.384400 -0.308386 -0.989712
v -0.224262 -0.410842 -1.081976
v -0.557712 -0.291500 -0.540336
v -0.474119 -0.180474 -0.944485
v -0.296481 -0.420259 -0.380374
v -0.017393 -0.461943 -0.490265
v -0.098796 -0.367055 -0.054955
v -0.352564 0.594149 0.094004
v -0.419460 0.567065 0.099606
v -0.413959 0.580689 -0.414343
v -0.193109 -0.099344 0.262346
v 0.065289 -0.311091 0.022357
v 0.152370 -0.182096 0.147492
v 0.510384 0.005699 -0.336055
v 0.394259 -0.306913 -0.487983
v 0.478038 -0.259383 -0.616374
v 0.300376 -0.168868 -0.098129
v 0.121073 -0.431042 -0.356156
v 0.227333 -0.389298 -0.370888
v 0.380961 0.509988 0.016529
v 0.378159 0.521505 0.214017
v 0.488480 0.329314 -0.080843
v 0.469369 0.400121 -0.186354
v 0.552709 0.383711 -0.257827
v 0.389301 0.049343 0.151802
v 0.452375 0.228499 0.296214
v 0.289110 0.074148 0.314411
v -0.011702 -0.507230 -1.043081
v 0.151315 -0.534421 -0.964599
v 0.118468 -0.552588 -0.882989
v 0.258223 -0.486888 -0.917192
v 0.201495 -0.548724 -0.676424
v 0.501671 0.207504 -0.714727
v 0.198610 0.296794 -0.917978
v 0.157496 0.450638 -0.685299
v 0.397607 0.102787 -0.955226
v 0.348680 0.533768 -0.172361
v 0.448433 0.267889 0.353241
v 0.513554 0.266419 0.105842
v -0.230314 0.539737 -0.492776
v 0.519684 0.267595 -0.579048
v 0.531802 -0.063921 -0.735979
v 0.596452 0.213880 -0.437886
v 0.495085 -0.050033 -0.831992
v 0.567612 0.234246 -0.124434
v 0.117165 0.537487 -0.398138
v -0.130246 0.438498 -0.810010
v -0.087478 0.493863 -0.676948
v -0.003206 -0.278020 -1.102143
v -0.304939 -0.255372 -1.097946
v -0.117520 -0.083270 -1.106303
v 0.170326 0.050356 -1.089994
v 0.007477 0.157226 -1.090357
v 0.229836 -0.180727 -1.068569
v 0.350664 -0.508814 -0.695370
v 0.203083 -0.377906 -1.035526
v 0.364249 -0.165652 -0.993550
v 0.052934 0.419747 -0.908097
v 0.354204 0.003978 -1.031862
v -0.493633 0.247672 -0.953096
v -0.381893 0.279282 -1.018745
v -0.491188 -0.026690 -0.982763
v -0.343127 0.078953 -1.055033
v -0.226159 0.305179 -1.058339
v -0.118943 0.274639 -1.081270
vt 0.724240 0.215522
vt 0.688855 0.205842
vt 0.734000 0.134208
vt 0.663181 0.258734
vt 0.715047 0.340824
vt 0.656637 0.195548
vt 0.645525 0.263128
vt 0.337745 0.185206
vt 0.314416 0.078365
vt 0.358105 0.089903
vt 0.790029 0.137945
vt 0.791730 0.231851
vt 0.710487 0.104530
vt 0.772691 0.081077
vt 0.657202 0.689438
vt 0.669122 0.843781
vt 0.645525 0.763742
vt 0.679813 0.095111
vt 0.717582 0.080730
vt 0.362987 0.267789
vt 0.341536 0.258779
vt 0.362987 0.214764
vt 0.337630 0.313155
vt 0.658594 0.312553
vt 0.769620 0.529761
vt 0.730496 0.592040
vt 0.661589 0.586248
vt 0.835958 0.256694
vt 0.847360 0.195950
vt 0.754513 0.444492
vt 0.786155 0.485816
vt 0.713900 0.500400
vt 0.728778 0.529761
vt 0.907966 0.740148
vt 0.959986 0.772691
vt 0.979231 0.832567
vt 0.948060 0.020769
vt 0.964789 0.075200
vt 0.941916 0.123599
vt 0.156519 0.476410
vt 0.086185 0.374589
vt 0.223706 0.275592
vt 0.874935 0.780371
vt 0.713142 0.667496
vt 0.713144 0.815457
vt 0.517541 0.436773
vt 0.613000 0.389176
vt 0.551514 0.472026
vt 0.282446 0.609854
vt 0.293502 0.547158
vt 0.316961 0.622016
vt 0.852787 0.020769
vt 0.876758 0.133658
vt 0.815512 0.037855
vt 0.344054 0.745257
vt 0.645525 0.393108
vt 0.762810 0.955271
vt 0.769620 0.886100
vt 0.608697 0.247878
vt 0.579051 0.326090
vt 0.133296 0.500217
vt 0.211540 0.500690
vt 0.258018 0.488882
vt 0.101808 0.460908
vt 0.487980 0.332947
vt 0.553830 0.207078
vt 0.281262 0.411560
vt 0.301092 0.413917
vt 0.692382 0.415797
vt 0.316127 0.255256
vt 0.965521 0.721599
vt 0.876758 0.282907
vt 0.827521 0.421515
vt 0.645525 0.107307
vt 0.616261 0.166015
vt 0.621232 0.108743
vt 0.516556 0.164908
vt 0.508871 0.112528
vt 0.427360 0.791257
vt 0.523529 0.848493
vt 0.496103 0.890407
vt 0.509020 0.715053
vt 0.461786 0.277753
vt 0.432229 0.269394
vt 0.572862 0.805987
vt 0.069460 0.421511
vt 0.063624 0.358295
vt 0.955071 0.135352
vt 0.919961 0.170990
vt 0.947656 0.231110
vt 0.910370 0.237975
vt 0.904445 0.272631
vt 0.442881 0.632334
vt 0.389207 0.581992
vt 0.454882 0.574208
vt 0.539622 0.630775
vt 0.435744 0.498728
vt 0.344054 0.500690
vt 0.394920 0.460540
vt 0.410562 0.440524
vt 0.370902 0.433382
vt 0.405216 0.370738
vt 0.050551 0.109855
vt 0.148199 0.062162
vt 0.153280 0.144695
vt 0.089357 0.032600
vt 0.608712 0.020769
vt 0.496765 0.036328
vt 0.876758 0.193141
vt 0.885701 0.646536
vt 0.928344 0.586573
vt 0.973917 0.661227
vt 0.979231 0.565316
vt 0.380614 0.561969
vt 0.366856 0.641507
vt 0.263516 0.222454
vt 0.040865 0.154846
vt 0.864303 0.756697
vt 0.801632 0.735333
vt 0.808542 0.604707
vt 0.786323 0.754841
vt 0.873196 0.534071
vt 0.874935 0.634506
vt 0.362987 0.717035
vt 0.961314 0.529761
vt 0.079473 0.302225
vt 0.156232 0.240141
vt 0.020769 0.260142
vt 0.584526 0.670269
vt 0.584526 0.551916
vt 0.620177 0.526586
vt 0.620177 0.595789
vt 0.243595 0.114861
vt 0.226561 0.157943
vt 0.085697 0.678552
vt 0.020769 0.639035
vt 0.052657 0.596233
vt 0.123879 0.623338
vt 0.197605 0.684872
vt 0.205548 0.628264
vt 0.142368 0.732199
vt 0.362987 0.359438
vt 0.391796 0.502879
vt 0.479089 0.498728
vt 0.874935 0.884796
vt 0.062307 0.796403
vt 0.085124 0.753814
vt 0.163735 0.775017
vt 0.793155 0.822833
vt 0.022036 0.712168
vt 0.035603 0.768285
vt 0.191802 0.077291
vt 0.578980 0.920743
vt 0.208712 0.746461
vt 0.241049 0.754854
vt 0.211784 0.814753
vt 0.356853 0.071315
vt 0.325530 0.049130
vt 0.164719 0.500690
vt 0.188012 0.518410
vt 0.090420 0.532133
vt 0.138603 0.549402
vt 0.691640 0.076663
vt 0.767563 0.040801
vt 0.618261 0.498728
vt 0.769620 0.670879
vt 0.282446 0.798409
vt 0.212520 0.837841
vt 0.215395 0.551659
vt 0.221068 0.581136
vt 0.280157 0.033226
vt 0.355195 0.550570
vt 0.362987 0.500690
vt 0.362987 0.591799
vt 0.641079 0.590554
vt 0.620177 0.515516
vt 0.641079 0.498728
vt 0.027619 0.594904
vt 0.248687 0.020769
vt 0.282446 0.629462
vt 0.267921 0.682293
vt 0.584526 0.979231
vt 0.826141 0.529761
vt 0.964789 0.267089
vn -0.987800 0.014700 0.155200
vn -0.878700 0.407800 -0.248100
vn -0.996800 0.060400 -0.052600
vn -0.932400 0.360500 -0.025700
vn -0.950000 0.010700 0.312100
vn -0.489100 0.778400 -0.393600
vn -0.543400 0.785200 -0.296800
vn -0.271500 0.829000 -0.489000
vn -0.643000 0.562100 -0.520100
vn -0.986100 -0.125600 0.108700
vn -0.956500 -0.048100 0.287700
vn -0.910500 0.294900 -0.289900
vn -0.944800 -0.163500 -0.284000
vn -0.699400 -0.375800 0.607900
vn -0.640500 -0.646300 0.414800
vn -0.473800 -0.707000 0.525000
vn -0.854900 0.108400 -0.507300
vn -0.628600 0.767400 0.126200
vn -0.207700 0.441800 0.872700
vn -0.611400 -0.110800 0.783600
vn -0.068100 -0.320700 0.944700
vn -0.901900 -0.161100 0.400800
vn -0.908700 -0.226400 0.350600
vn -0.865900 -0.098300 0.490500
vn -0.531800 0.649800 0.543000
vn 0.281000 0.184900 0.941700
vn 0.269200 0.785200 0.557700
vn 0.086900 0.992800 0.081900
vn 0.499600 0.675500 0.542300
vn 0.448700 0.874400 0.184800
vn 0.202000 0.976700 -0.072700
vn 0.075300 0.992300 -0.098600
vn -0.840000 -0.202800 0.503200
vn -0.827700 -0.345500 0.442100
vn -0.270700 -0.962400 0.022200
vn -0.495000 -0.865000 0.082200
vn -0.511600 -0.843200 -0.165100
vn -0.724500 -0.489400 -0.485300
vn -0.385200 -0.576700 -0.720400
vn -0.870000 -0.492400 -0.023700
vn -0.836000 -0.329100 -0.439100
vn -0.275500 -0.941300 0.195000
vn -0.117100 -0.977500 0.175400
vn -0.138100 -0.900400 0.412500
vn -0.128000 0.991500 0.024700
vn -0.836800 0.475400 0.271500
vn -0.042200 0.977600 -0.206300
vn -0.126400 -0.684000 0.718400
vn 0.235500 -0.838100 0.492000
vn 0.421200 -0.696300 0.581200
vn 0.861000 -0.441800 0.251900
vn 0.736700 -0.556700 0.383700
vn 0.912100 -0.408700 -0.031000
vn 0.703200 -0.621900 0.344700
vn 0.172600 -0.929900 0.324800
vn 0.508800 -0.762900 0.398900
vn 0.693800 0.718100 -0.055100
vn 0.791000 0.547000 0.274200
vn 0.793300 0.584000 0.172300
vn 0.628500 0.637400 0.445700
vn 0.758400 0.644200 0.099300
vn 0.761500 -0.559100 0.327800
vn 0.788700 -0.500900 0.356400
vn 0.473400 -0.593400 0.650900
vn -0.095300 -0.832400 -0.545900
vn 0.339400 -0.796600 -0.500200
vn 0.065300 -0.994500 -0.081400
vn 0.696900 -0.579400 -0.422700
vn 0.043700 -0.971800 0.231700
vn 0.780700 0.463400 -0.419200
vn 0.444100 0.606900 -0.659100
vn 0.400800 0.855800 -0.327000
vn 0.683000 0.374500 -0.627100
vn 0.550200 0.834300 0.035100
vn 0.696400 -0.025500 0.717200
vn 0.978500 0.053100 0.199300
vn 0.038700 0.970000 -0.240100
vn 0.692300 0.638000 -0.337200
vn 0.957000 -0.116500 -0.265600
vn 0.995700 0.051100 -0.077400
vn 0.880800 -0.137000 -0.453300
vn 0.973300 0.002700 0.229400
vn 0.116800 0.978500 -0.170100
vn -0.113100 0.915800 -0.385400
vn 0.029300 0.960500 -0.276900
vn 0.092500 -0.126500 -0.987600
vn -0.331700 -0.086700 -0.939400
vn -0.008900 0.033200 -0.999400
vn 0.219400 0.176200 -0.959600
vn 0.232700 0.334400 -0.913200
vn 0.338400 -0.126400 -0.932500
vn 0.604500 -0.790800 0.096400
vn 0.412000 -0.341500 -0.844800
vn 0.678700 -0.248400 -0.691100
vn 0.204300 0.803500 -0.559200
vn 0.559400 0.143800 -0.816400
vn -0.608500 0.411000 -0.678900
vn -0.440500 0.435800 -0.784900
vn -0.693000 -0.067800 -0.717800
vn -0.323100 0.087200 -0.942400
vn -0.181900 0.665000 -0.724300
vn -0.009100 0.273000 -0.962000
s 1
f 1/1/1 2/2/2 3/3/3
f 1/1/1 4/4/4 2/2/2
f 1/1/1 5/5/5 4/4/4
f 6/6/6 2/2/2 7/7/7
f 6/8/6 8/9/8 9/10/9
f 3/3/3 10/11/10 1/1/1
f 1/1/1 10/11/10 11/12/11
f 3/3/3 2/2/2 12/13/12
f 3/3/3 12/13/12 13/14/13
f 3/3/3 13/14/13 10/11/10
f 14/15/14 15/16/15 16/17/16
f 9/18/9 17/19/17 12/13/12
f 12/13/12 17/19/17 13/14/13
f 9/18/9 12/13/12 6/6/6
f 12/13/12 2/2/2 6/6/6
f 4/20/4 7/21/7 2/22/2
f 4/20/4 18/23/18 7/21/7
f 4/4/4 5/5/5 18/24/18
f 19/25/19 20/26/20 21/27/21
f 22/28/22 11/12/11 23/29/23
f 24/30/24 20/31/20 25/32/25
f 19/33/19 25/32/25 20/31/20
f 26/34/26 27/35/27 19/36/19
f 28/37/28 29/38/29 30/39/30
f 28/40/28 31/41/31 32/42/32
f 21/43/21 26/34/26 19/36/19
f 14/15/14 33/44/33 34/45/34
f 35/46/35 36/47/36 37/48/37
f 24/30/24 5/5/5 22/28/22
f 38/49/38 39/50/39 37/51/37
f 38/52/38 40/53/40 41/54/41
f 38/49/38 37/51/37 40/55/40
f 40/56/40 37/48/37 36/47/36
f 40/57/40 15/16/15 23/58/23
f 15/16/15 34/45/34 23/58/23
f 40/56/40 36/47/36 15/59/15
f 42/60/42 15/59/15 36/47/36
f 27/61/27 28/40/28 19/62/19
f 19/62/19 28/40/28 25/63/25
f 27/61/27 29/64/29 28/40/28
f 43/65/43 44/66/44 42/60/42
f 45/67/45 28/40/28 32/42/32
f 45/67/45 25/63/25 28/40/28
f 10/11/10 23/29/23 11/12/11
f 46/68/46 45/67/45 18/23/18
f 46/69/46 5/5/5 24/30/24
f 46/69/46 18/24/18 5/5/5
f 46/69/46 24/30/24 25/32/25
f 46/68/46 25/63/25 45/67/45
f 32/42/32 47/70/47 45/67/45
f 47/70/47 18/23/18 45/67/45
f 47/70/47 7/21/7 18/23/18
f 27/35/27 26/34/26 29/71/29
f 22/28/22 34/72/34 33/73/33
f 22/28/22 33/73/33 24/30/24
f 11/12/11 22/28/22 5/5/5
f 11/12/11 5/5/5 1/1/1
f 13/14/13 40/53/40 10/11/10
f 40/53/40 23/29/23 10/11/10
f 40/53/40 13/14/13 41/54/41
f 23/29/23 34/72/34 22/28/22
f 14/15/14 34/45/34 15/16/15
f 14/74/14 16/75/16 48/76/48
f 44/66/44 48/76/48 16/75/16
f 16/75/16 15/59/15 44/66/44
f 42/60/42 44/66/44 15/59/15
f 43/65/43 42/60/42 35/46/35
f 42/60/42 36/47/36 35/46/35
f 48/76/48 44/66/44 49/77/49
f 48/76/48 49/77/49 50/78/50
f 51/79/51 52/80/52 53/81/53
f 51/79/51 54/82/54 52/80/52
f 55/83/55 56/84/56 49/77/49
f 55/83/55 44/66/44 43/65/43
f 54/82/54 56/85/56 52/80/52
f 31/41/31 30/86/30 57/87/57
f 30/39/30 58/88/58 57/89/57
f 57/89/57 58/88/58 59/90/59
f 31/41/31 28/40/28 30/86/30
f 30/39/30 29/38/29 58/88/58
f 60/91/60 59/90/59 61/92/61
f 62/93/62 63/94/63 64/95/64
f 64/95/64 50/96/50 62/93/62
f 50/96/50 54/82/54 62/93/62
f 65/97/65 35/46/35 37/48/37
f 37/51/37 39/50/39 65/98/65
f 65/97/65 66/99/66 67/100/67
f 67/100/67 66/99/66 68/101/68
f 65/97/65 67/100/67 35/46/35
f 67/100/67 69/102/69 35/46/35
f 35/46/35 69/102/69 43/65/43
f 70/103/70 71/104/71 72/105/72
f 70/103/70 73/106/73 71/104/71
f 21/107/21 50/78/50 64/108/64
f 60/91/60 61/92/61 74/109/74
f 75/110/75 76/111/76 58/112/58
f 76/111/76 59/113/59 58/112/58
f 75/114/75 63/94/63 76/115/76
f 21/107/21 14/74/14 48/76/48
f 32/42/32 77/116/77 47/70/47
f 72/105/72 78/117/78 70/103/70
f 53/118/53 79/119/79 80/120/80
f 79/119/79 53/118/53 81/121/81
f 82/122/82 51/123/51 80/120/80
f 33/73/33 20/31/20 24/30/24
f 76/115/76 62/93/62 82/124/82
f 76/111/76 82/125/82 59/113/59
f 76/115/76 63/94/63 62/93/62
f 54/82/54 51/79/51 62/93/62
f 74/126/74 83/127/83 31/41/31
f 31/41/31 83/127/83 32/42/32
f 74/109/74 57/89/57 59/90/59
f 74/109/74 59/90/59 60/91/60
f 74/126/74 31/41/31 57/87/57
f 72/105/72 74/126/74 61/128/61
f 72/105/72 61/128/61 78/117/78
f 29/71/29 75/110/75 58/112/58
f 50/96/50 49/129/49 56/85/56
f 50/96/50 56/85/56 54/82/54
f 55/83/55 49/77/49 44/66/44
f 80/130/80 78/131/78 61/132/61
f 84/133/84 8/9/8 6/8/6
f 85/134/85 84/133/84 77/116/77
f 86/135/86 39/136/39 87/137/87
f 86/135/86 88/138/88 89/139/89
f 86/135/86 87/137/87 88/138/88
f 88/138/88 90/140/90 89/139/89
f 86/135/86 89/139/89 91/141/91
f 69/102/69 55/83/55 43/65/43
f 69/102/69 92/142/92 56/84/56
f 69/102/69 56/84/56 55/83/55
f 75/114/75 26/143/26 21/144/21
f 68/145/68 81/121/81 53/118/53
f 68/146/68 93/147/93 94/148/94
f 94/148/94 93/147/93 91/141/91
f 94/149/94 81/121/81 68/145/68
f 65/150/65 39/136/39 86/135/86
f 65/150/65 86/135/86 93/147/93
f 93/147/93 86/135/86 91/141/91
f 65/150/65 93/147/93 66/151/66
f 93/147/93 68/146/68 66/151/66
f 95/152/95 72/105/72 71/104/71
f 69/102/69 67/100/67 92/142/92
f 92/142/92 67/100/67 68/101/68
f 92/153/92 53/81/53 52/80/52
f 52/80/52 56/85/56 92/153/92
f 96/154/96 94/148/94 91/141/91
f 96/154/96 73/155/73 81/156/81
f 96/154/96 81/156/81 94/148/94
f 97/157/97 8/9/8 98/158/98
f 97/157/97 9/10/9 8/9/8
f 97/159/97 98/160/98 99/161/99
f 98/160/98 100/162/100 99/161/99
f 97/163/97 17/19/17 9/18/9
f 97/163/97 99/164/99 17/19/17
f 17/19/17 99/164/99 13/14/13
f 80/130/80 70/165/70 78/131/78
f 80/120/80 79/119/79 70/166/70
f 70/167/70 79/168/79 81/156/81
f 101/169/101 102/170/102 100/162/100
f 101/169/101 100/162/100 98/160/98
f 101/171/101 98/158/98 8/9/8
f 102/170/102 90/140/90 88/138/88
f 99/161/99 100/162/100 87/137/87
f 41/172/41 99/173/99 38/174/38
f 99/175/99 87/176/87 38/177/38
f 38/178/38 87/137/87 39/136/39
f 41/54/41 13/14/13 99/164/99
f 96/154/96 91/141/91 89/139/89
f 73/155/73 70/167/70 81/156/81
f 83/127/83 77/116/77 32/42/32
f 83/127/83 85/134/85 77/116/77
f 83/127/83 72/105/72 85/134/85
f 101/171/101 84/133/84 95/152/95
f 101/171/101 8/9/8 84/133/84
f 101/171/101 95/152/95 102/179/102
f 95/180/95 90/140/90 102/170/102
f 6/8/6 47/70/47 84/133/84
f 47/70/47 77/116/77 84/133/84
f 6/8/6 7/21/7 47/70/47
f 71/181/71 90/140/90 95/180/95
f 71/181/71 89/139/89 90/140/90
f 29/71/29 26/34/26 75/110/75
f 87/137/87 100/162/100 102/170/102
f 87/137/87 102/170/102 88/138/88
f 71/181/71 96/154/96 89/139/89
f 71/181/71 73/155/73 96/154/96
f 53/118/53 80/120/80 51/123/51
f 92/153/92 68/182/68 53/81/53
f 84/133/84 85/134/85 95/152/95
f 95/152/95 85/134/85 72/105/72
f 50/78/50 21/107/21 48/76/48
f 75/114/75 21/144/21 64/95/64
f 83/127/83 74/126/74 72/105/72
f 82/124/82 62/93/62 51/79/51
f 75/114/75 64/95/64 63/94/63
f 20/26/20 14/15/14 21/27/21
f 14/15/14 20/26/20 33/44/33
f 61/183/61 82/122/82 80/120/80
f 61/92/61 59/90/59 82/184/82
