%YAML 1.1
%TAG !u! tag:unity3d.com,2011:
--- !u!1 &100000
GameObject:
  m_ObjectHideFlags: 0
  m_PrefabParentObject: {fileID: 0}
  m_PrefabInternal: {fileID: 100100000}
  serializedVersion: 4
  m_Component:
  - 4: {fileID: 400000}
  - 114: {fileID: 11400000}
  - 114: {fileID: 11400002}
  m_Layer: 0
  m_Name: GBSettings
  m_TagString: Untagged
  m_Icon: {fileID: 0}
  m_NavMeshLayer: 0
  m_StaticEditorFlags: 0
  m_IsActive: 1
--- !u!4 &400000
Transform:
  m_ObjectHideFlags: 1
  m_PrefabParentObject: {fileID: 0}
  m_PrefabInternal: {fileID: 100100000}
  m_GameObject: {fileID: 100000}
  m_LocalRotation: {x: 0, y: 0, z: 0, w: 1}
  m_LocalPosition: {x: 0, y: 0, z: 0}
  m_LocalScale: {x: 1, y: 1, z: 1}
  m_LocalEulerAnglesHint: {x: 0, y: 0, z: 0}
  m_Children: []
  m_Father: {fileID: 0}
  m_RootOrder: 0
--- !u!114 &11400000
MonoBehaviour:
  m_ObjectHideFlags: 1
  m_PrefabParentObject: {fileID: 0}
  m_PrefabInternal: {fileID: 100100000}
  m_GameObject: {fileID: 100000}
  m_Enabled: 1
  m_EditorHideFlags: 0
  m_Script: {fileID: 11500000, guid: f13f718bfed514afd835aac4c8dda357, type: 3}
  m_Name: 
  m_EditorClassIdentifier: 
--- !u!114 &11400002
MonoBehaviour:
  m_ObjectHideFlags: 1
  m_PrefabParentObject: {fileID: 0}
  m_PrefabInternal: {fileID: 100100000}
  m_GameObject: {fileID: 100000}
  m_Enabled: 1
  m_EditorHideFlags: 0
  m_Script: {fileID: 11500000, guid: f7da02e139c234fe5a420083eace9744, type: 3}
  m_Name: 
  m_EditorClassIdentifier: 
  brushSize: 2.39
  fireFromCamera: 0
  minScale: 0.6
  maxScale: 1
  spacing: 37.2
  preventOverlap: 1
  yOffset: 0
  alignToNormal: 1
  randomRotX: 1
  randomRotY: 1
  randomRotZ: 1
  brushActive: 1
  randomRotation: {x: 12, y: 360, z: 12}
  delete: 0
  raycastMode: 0
  parentObject: {fileID: 0}
  minBrushSize: 0.1
  maxBrushSize: 8
  minMinScale: 0.1
  maxMinScale: 5
  minMaxScale: 0.1
  maxMaxScale: 5
  minYOffset: -2.5
  maxYOffset: 2.5
  minSpacing: 5
  maxSpacing: 50
  gizmoPos: {x: 205.14386, y: 7.154666, z: 174.66113}
  gizmoActive: 0
  activeGeometry: []
  activeGeometryPaths: []
--- !u!1001 &100100000
Prefab:
  m_ObjectHideFlags: 1
  serializedVersion: 2
  m_Modification:
    m_TransformParent: {fileID: 0}
    m_Modifications: []
    m_RemovedComponents: []
  m_ParentPrefab: {fileID: 0}
  m_RootGameObject: {fileID: 100000}
  m_IsPrefabParent: 1
